#######################################
# Syntax Coloring Map For Debug
#######################################

#######################################
# Datatypes (KEYWORD1)
#######################################

#######################################
# Methods and Functions (KEYWORD2)
#######################################

begin	KEYWORD2

#######################################
# Instances (KEYWORD2)
#######################################

#######################################
# Constants (LITERAL1)
#######################################
